{
  "docs": [
    {
      "_id": "63aac595bf56d043f9362f52",
      "user": {
        "id": 21864,
        "name": "BCINEET APP"
      },
      "category": {
        "id": 91,
        "name": "Drama"
      },
      "region": {
        "id": 21,
        "name": "Telugu"
      },
      "mediaId": "MiFl4qkO",
      "media": 0,
      "pub": "1",
      "pubdate": "2022-12-27T00:00:00.000Z",
      "status": 1,
      "featured": 0,
      "views": 12746,
      "liked": 410703,
      "disliked": 0,
      "sharecount": 0,
      "nsfw": 0,
      "remote": "0",
      "privacy": 0,
      "pjt_id": 0,
      "fav_count": 20,
      "teaser_url": "https://www.youtube.com/watch?v=ui1edGCGG1U",
      "release_mode": "PAID",
      "release_pay": 35,
      "age": "18+",
      "ticket_price": 35,
      "source_id": 0,
      "is_promote": 1,
      "source": "https://content.jwplatform.com/previews/MiFl4qkO5",
      "sources": [
        {
          "_id": "63ea2b68254db708bb818f4d",
          "file": "https://content.jwplatform.com/manifests/MiFl4qkO.m3u8",
          "type": "application/vnd.apple.mpegurl"
        },
        {
          "_id": "63ea2b68254db708bb818f4e",
          "file": "https://content.jwplatform.com/videos/MiFl4qkO-vtnCdWfY.mp4",
          "type": "video/mp4",
          "height": 180,
          "width": 320,
          "label": "180p",
          "bitrate": 248575,
          "filesize": 62143931,
          "framerate": 24
        },
        {
          "_id": "63ea2b68254db708bb818f4f",
          "file": "https://content.jwplatform.com/videos/MiFl4qkO-TcTB24PA.mp4",
          "type": "video/mp4",
          "height": 270,
          "width": 480,
          "label": "270p",
          "bitrate": 369893,
          "filesize": 92473427,
          "framerate": 24
        },
        {
          "_id": "63ea2b68254db708bb818f50",
          "file": "https://content.jwplatform.com/videos/MiFl4qkO-OUVmqtlC.mp4",
          "type": "video/mp4",
          "height": 720,
          "width": 1280,
          "label": "720p",
          "bitrate": 996002,
          "filesize": 249000634,
          "framerate": 24
        },
        {
          "_id": "63ea2b68254db708bb818f51",
          "file": "https://content.jwplatform.com/videos/MiFl4qkO-lsqpfAyF.m4a",
          "type": "audio/mp4",
          "label": "AAC Audio",
          "bitrate": 113420,
          "filesize": 28355105
        },
        {
          "_id": "63ea2b68254db708bb818f52",
          "file": "https://content.jwplatform.com/videos/MiFl4qkO-XvGXaKDC.mp4",
          "type": "video/mp4",
          "height": 1080,
          "width": 1920,
          "label": "1080p",
          "bitrate": 2103616,
          "filesize": 525904118,
          "framerate": 24
        },
        {
          "_id": "63ea2b68254db708bb818f53",
          "file": "https://content.jwplatform.com/videos/MiFl4qkO-0cljsL26.mp4",
          "type": "video/mp4",
          "height": 360,
          "width": 640,
          "label": "360p",
          "bitrate": 404170,
          "filesize": 101042631,
          "framerate": 24
        },
        {
          "_id": "63ea2b68254db708bb818f54",
          "file": "https://content.jwplatform.com/videos/MiFl4qkO-xhsLq8vd.mp4",
          "type": "video/mp4",
          "height": 540,
          "width": 960,
          "label": "540p",
          "bitrate": 664801,
          "filesize": 166200414,
          "framerate": 24
        }
      ],
      "title": "Garbha - Telugu Revenge Drama Short Film",
      "thumb": "https://content.jwplatform.com/v2/media/MiFl4qkO/poster.jpg?width=720",
      "images": [
        {
          "_id": "63ea2b68254db708bb818f55",
          "src": "https://content.jwplatform.com/v2/media/MiFl4qkO/poster.jpg?width=320",
          "width": 320,
          "type": "image/jpeg"
        },
        {
          "_id": "63ea2b68254db708bb818f56",
          "src": "https://content.jwplatform.com/v2/media/MiFl4qkO/poster.jpg?width=480",
          "width": 480,
          "type": "image/jpeg"
        },
        {
          "_id": "63ea2b68254db708bb818f57",
          "src": "https://content.jwplatform.com/v2/media/MiFl4qkO/poster.jpg?width=640",
          "width": 640,
          "type": "image/jpeg"
        },
        {
          "_id": "63ea2b68254db708bb818f58",
          "src": "https://content.jwplatform.com/v2/media/MiFl4qkO/poster.jpg?width=720",
          "width": 720,
          "type": "image/jpeg"
        },
        {
          "_id": "63ea2b68254db708bb818f59",
          "src": "https://content.jwplatform.com/v2/media/MiFl4qkO/poster.jpg?width=1280",
          "width": 1280,
          "type": "image/jpeg"
        },
        {
          "_id": "63ea2b68254db708bb818f5a",
          "src": "https://content.jwplatform.com/v2/media/MiFl4qkO/poster.jpg?width=1920",
          "width": 1920,
          "type": "image/jpeg"
        }
      ],
      "duration": "2000",
      "poster": "https://i.imgur.com/aFJG96r.jpg",
      "downloadurl": "https://content.jwplatform.com/videos/MiFl4qkO-OUVmqtlC.mp4",
      "description": "An village backdrop story of family \n\nStar Cast\nJay Reddy, Sandhya Rathode, Rahamathullah\n\nBanner/ Studio\nRenuka Creations\n\nProducer\nAjay Uppalam, Praveen Kumar Kanduri\n\nDirector\nSanjeev Chinnakotla \n\nRights (Exclusive/ non-exclusive)\nNon Exclusive\n\nMusic Director\nGyaani\n\nBackground Music\nGyaani\n\nWriter & Screenplay\nSanjeev Chinnakotla \n\nCinematographer\nShiva Kumar Yasa\n\nEditor\nRaghavendhar Reddy\n\nAudiography\nDigi Quest\n\nAsst Director\nKamesh\n\nMake-UP\nHari Reddy \n\nProduction Company\nRenuka Creations\n\nBudget\n410,000.00\n\nSound\nShimithra\n\nShoot Locations\nBasaara, Telangana \n\nPublicity Stills\nKamesh\n\nPublicity Design\nVeteran , MKS\n\nDialogue Writer\nSanjeev Chinnakotla",
      "certify": "U/A",
      "casts": [
        {
          "_id": "675728bacc1e202d539b69b2",
          "role": "Director",
          "name": "Sanjeev Chinnakotla "
        },
        {
          "_id": "675728bacc1e202d539b69b3",
          "role": "Producer",
          "name": "Ajay Uppalam, Praveen Kumar Kanduri"
        },
        {
          "_id": "675728bacc1e202d539b69b4",
          "role": "Writer",
          "name": "Sanjeev Chinnakotla "
        }
      ],
      "createdAt": "2022-12-27T00:00:00.000Z",
      "updatedAt": "2025-05-26T12:02:20.167Z",
      "tags": "drama,Telugu,Revenge",
      "buy_price_id": null,
      "is_banner": false,
      "rent_price_id": null,
      "interested": 2336,
      "continueduration": 0,
      "distributed": [],
      "is_awarded": 0,
      "is_upcoming": 0,
      "parent_id": null,
      "series_order": 0,
      "tmp_source": "",
      "is_ott_play_live": 0,
      "is_ott_play_marked": 0,
      "is_ott_play_unpblish": 0,
      "available_from": "2024-01-11T00:00:00.000Z",
      "available_untill": "2030-10-26T00:00:00.000Z",
      "v_poster": "https://i.imgur.com/aFJG96r.jpg",
      "id": "63aac595bf56d043f9362f52"
    },
    {
      "_id": "64d2332890888617d44481ea",
      "user": {
        "id": 20,
        "name": "Shortfundly"
      },
      "category": {
        "id": 32,
        "name": "Romance"
      },
      "region": {
        "id": 1,
        "name": "Tamil"
      },
      "mediaId": "Vf8kkQ5P",
      "media": 0,
      "pub": "1",
      "pubdate": "2023-08-08T00:00:00.000Z",
      "status": 1,
      "featured": 0,
      "views": 11733,
      "liked": 3886,
      "disliked": 0,
      "sharecount": 0,
      "nsfw": 0,
      "remote": "0",
      "privacy": 0,
      "pjt_id": 0,
      "fav_count": 14,
      "teaser_url": "https://www.youtube.com/watch?v=J_DAFabjtYg",
      "release_mode": "PAID",
      "release_pay": 20,
      "age": "18+",
      "ticket_price": 20,
      "source_id": 0,
      "is_promote": 1,
      "parent_id": null,
      "series_order": 0,
      "is_banner": false,
      "rent_price_id": null,
      "buy_price_id": null,
      "continueduration": 0,
      "source": "https://content.jwplatform.com/previews/Vf8kkQ5P",
      "sources": [
        {
          "_id": "651bbae2a9a3f35ebc04ea0b",
          "file": "https://content.jwplatform.com/manifests/Vf8kkQ5P.m3u8",
          "type": "application/vnd.apple.mpegurl"
        },
        {
          "_id": "651bbae2a9a3f35ebc04ea0c",
          "file": "https://content.jwplatform.com/videos/Vf8kkQ5P-vtnCdWfY.mp4",
          "type": "video/mp4",
          "height": 140,
          "width": 320,
          "label": "180p",
          "bitrate": 310562,
          "filesize": 69061306,
          "framerate": 24
        },
        {
          "_id": "651bbae2a9a3f35ebc04ea0d",
          "file": "https://content.jwplatform.com/videos/Vf8kkQ5P-TcTB24PA.mp4",
          "type": "video/mp4",
          "height": 210,
          "width": 480,
          "label": "270p",
          "bitrate": 479167,
          "filesize": 106554908,
          "framerate": 24
        },
        {
          "_id": "651bbae2a9a3f35ebc04ea0e",
          "file": "https://content.jwplatform.com/videos/Vf8kkQ5P-OUVmqtlC.mp4",
          "type": "video/mp4",
          "height": 558,
          "width": 1280,
          "label": "720p",
          "bitrate": 1287416,
          "filesize": 286289145,
          "framerate": 24
        },
        {
          "_id": "651bbae2a9a3f35ebc04ea0f",
          "file": "https://content.jwplatform.com/videos/Vf8kkQ5P-lsqpfAyF.m4a",
          "type": "audio/mp4",
          "label": "AAC Audio",
          "bitrate": 113426,
          "filesize": 25223209
        },
        {
          "_id": "651bbae2a9a3f35ebc04ea10",
          "file": "https://content.jwplatform.com/videos/Vf8kkQ5P-0cljsL26.mp4",
          "type": "video/mp4",
          "height": 278,
          "width": 640,
          "label": "360p",
          "bitrate": 503105,
          "filesize": 111878182,
          "framerate": 24
        },
        {
          "_id": "651bbae2a9a3f35ebc04ea11",
          "file": "https://content.jwplatform.com/videos/Vf8kkQ5P-xhsLq8vd.mp4",
          "type": "video/mp4",
          "height": 418,
          "width": 960,
          "label": "540p",
          "bitrate": 865312,
          "filesize": 192423880,
          "framerate": 24
        }
      ],
      "title": "Alage Aabathu - LOVE ROMANTIC 18+ Tamil Short film",
      "thumb": "https://content.jwplatform.com/v2/media/Vf8kkQ5P/poster.jpg?width=720",
      "images": [
        {
          "_id": "651bbae2a9a3f35ebc04ea12",
          "src": "https://content.jwplatform.com/v2/media/Vf8kkQ5P/poster.jpg?width=320",
          "width": 320,
          "type": "image/jpeg"
        },
        {
          "_id": "651bbae2a9a3f35ebc04ea13",
          "src": "https://content.jwplatform.com/v2/media/Vf8kkQ5P/poster.jpg?width=480",
          "width": 480,
          "type": "image/jpeg"
        },
        {
          "_id": "651bbae2a9a3f35ebc04ea14",
          "src": "https://content.jwplatform.com/v2/media/Vf8kkQ5P/poster.jpg?width=640",
          "width": 640,
          "type": "image/jpeg"
        },
        {
          "_id": "651bbae2a9a3f35ebc04ea15",
          "src": "https://content.jwplatform.com/v2/media/Vf8kkQ5P/poster.jpg?width=720",
          "width": 720,
          "type": "image/jpeg"
        },
        {
          "_id": "651bbae2a9a3f35ebc04ea16",
          "src": "https://content.jwplatform.com/v2/media/Vf8kkQ5P/poster.jpg?width=1280",
          "width": 1280,
          "type": "image/jpeg"
        },
        {
          "_id": "651bbae2a9a3f35ebc04ea17",
          "src": "https://content.jwplatform.com/v2/media/Vf8kkQ5P/poster.jpg?width=1920",
          "width": 1920,
          "type": "image/jpeg"
        }
      ],
      "duration": "1779",
      "poster": "https://img.jwplayer.com/v1/images/L7f2AyHy.jpg",
      "downloadurl": "https://content.jwplatform.com/videos/Vf8kkQ5P-OUVmqtlC.mp4",
      "description": "This Tamil Shortfilm Story LOVE ROMANTIC SUSPENSE THRILLER BASED Content.\n\nCONTENT IS '1 WOMEN PLAYED VERY WELL TO 3 MENS LIFE'\n\nPunch Line: Aavathum Pennale Azhivathum Pennale - (BEAWARE OF THIS TYPE OF GIRLS)\n\n\nCast & Crew\nGANESHKUMAR/ESAKIRAJA/GANAPATHIRAMAN/RAMYAASHOK/PRADEEP/PRAKASH/PAPPA SANKAR",
      "tags": "thriller,Suspense,Romance,love",
      "certify": "A",
      "casts": [
        {
          "_id": "67969303656d213099127db6",
          "role": "Director",
          "name": "GANESHKUMAR P (GANESH TUTICORIN)"
        },
        {
          "_id": "67969303656d213099127db7",
          "role": "Producer",
          "name": "MIDDLE CLASS PASANGA PRODUCTIONS"
        },
        {
          "_id": "67969303656d213099127db8",
          "role": "Crew",
          "name": "GANESHKUMAR/ESAKIRAJA/GANAPATHIRAMAN/RAMYAASHOK/PRADEEP/PRAKASH/PAPPA SANKAR"
        }
      ],
      "createdAt": "2023-08-08T00:00:00.000Z",
      "updatedAt": "2025-04-01T03:32:28.212Z",
      "interested": 1337,
      "distributed": [],
      "is_awarded": 0,
      "is_upcoming": 0,
      "is_ott_play_live": 1,
      "is_ott_play_marked": 1,
      "is_ott_play_unpblish": 0,
      "tmp_source": "",
      "available_from": "2024-01-11T00:00:00.000Z",
      "available_untill": "2030-10-26T00:00:00.000Z",
      "v_poster": "https://img.jwplayer.com/v1/images/L7f2AyHy.jpg",
      "id": "64d2332890888617d44481ea"
    }
  ],
  "totalDocs": 1066,
  "limit": 2,
  "totalPages": 533,
  "page": 1,
  "pagingCounter": 1,
  "hasPrevPage": false,
  "hasNextPage": true,
  "prevPage": null,
  "nextPage": 2
}